CWRS Helper
…
To read and clean ICP-MS data files generated by the Thermo Scientific iCAP-RQ, use the read_icp() function. (N.B., the code below uses external raw data files as examples; replace them with your data.)

library("tidyverse")
#> Warning: package 'tidyverse' was built under R version 4.1.3
library("cwrshelpr")
# example path to example raw data file
files <- list.files(
  # replace this line with the path to your data:
   path = system.file("extdata", package = "cwrshelpr"), 
   full.names = TRUE,
   pattern = ".+\\.xlsx"
)
read_icp(path = files[1]) # read and clean one file
#> # A tibble: 1,440 x 6
#>    sample_name estimate_type         isotope element    value unit 
#>    <chr>       <chr>                 <chr>   <chr>      <dbl> <chr>
#>  1 Wash        Concentration average 27      Al       0.115   g/l 
#>  2 Wash        Concentration average 31      P       -0.0408  g/l 
#>  3 Wash        Concentration average 45      Sc      99.6     %    
#>  4 Wash        Concentration average 55      Mn      -0.00621 g/l 
#>  5 Wash        Concentration average 56      Fe       0.0124  g/l 
#>  6 Wash        Concentration average 65      Cu       0.0396  g/l 
#>  7 Wash        Concentration average 115     In      99.2     %    
#>  8 Wash        Concentration average 159     Tb      98.1     %    
#>  9 Wash        Concentration average 208     Pb       0.0497  g/l 
#> 10 Wash        Concentration per Run 27      Al       0.133   g/l 
#> # ... with 1,430 more rows
files %>% 
  set_names() %>% 
  map_dfr(read_icp, .id = "file") # read and clean multiple files
#> # A tibble: 2,439 x 7
#>    file                 sample_name estimate_type isotope element    value unit 
#>    <chr>                <chr>       <chr>         <chr>   <chr>      <dbl> <chr>
#>  1 C:/Users/picka/R-4.~ Wash        Concentratio~ 27      Al       0.115   g/l 
#>  2 C:/Users/picka/R-4.~ Wash        Concentratio~ 31      P       -0.0408  g/l 
#>  3 C:/Users/picka/R-4.~ Wash        Concentratio~ 45      Sc      99.6     %    
#>  4 C:/Users/picka/R-4.~ Wash        Concentratio~ 55      Mn      -0.00621 g/l 
#>  5 C:/Users/picka/R-4.~ Wash        Concentratio~ 56      Fe       0.0124  g/l 
#>  6 C:/Users/picka/R-4.~ Wash        Concentratio~ 65      Cu       0.0396  g/l 
#>  7 C:/Users/picka/R-4.~ Wash        Concentratio~ 115     In      99.2     %    
#>  8 C:/Users/picka/R-4.~ Wash        Concentratio~ 159     Tb      98.1     %    
#>  9 C:/Users/picka/R-4.~ Wash        Concentratio~ 208     Pb       0.0497  g/l 
#> 10 C:/Users/picka/R-4.~ Wash        Concentratio~ 27      Al       0.133   g/l 
#> # ... with 2,429 more rows

Fluorescence excitation-emission matrices (FEEM)

To read and clean FEEM data files generated by the Horiba Aqualog, use the read_feem() function. The argument truncate = TRUE may be useful if the corrected first order Rayleigh scattering line includes negative intensities.

files <- list.files(
   path = system.file("extdata", package = "cwrshelpr"), # replace this line with the path to your data
   full.names = TRUE,
   pattern = ".+\\.csv"
)
read_feem(path = files[1]) # read and clean one file
#> # A tibble: 15,125 x 4
#>    emission em_regular excitation intensity
#>       <dbl>      <dbl>      <dbl>     <dbl>
#>  1     212.       212.        600         0
#>  2     212.       212.        597         0
#>  3     212.       212.        594         0
#>  4     212.       212.        591         0
#>  5     212.       212.        588         0
#>  6     212.       212.        585         0
#>  7     212.       212.        582         0
#>  8     212.       212.        579         0
#>  9     212.       212.        576         0
#> 10     212.       212.        573         0
#> # ... with 15,115 more rows
…
